%YAML 1.1
%TAG !u! tag:unity3d.com,2011:
--- !u!78 &1
TagManager:
  serializedVersion: 2
  tags: []
  layers:
  - Default
  - TransparentFX
  - Ignore Raycast
  - 
  - Water
  - UI
  - 
  - 
  - 
  - 
  - 
  - 
  - 
  - 
  - 
  - 
  - 
  - 
  - 
  - 
  - 
  - 
  - 
  - 
  - 
  - 
  - 
  - 
  - 
  - 
  - 
  - 
  m_SortingLayers:
  - name: Default
    uniqueID: 0
    locked: 0
  - name: water
    uniqueID: 1245936803
    locked: 0
  - name: grass
    uniqueID: 3050281223
    locked: 0
  - name: mud
    uniqueID: 1491708181
    locked: 0
  - name: animals
    uniqueID: 1058570005
    locked: 0
  - name: dialog
    uniqueID: 1979828109
    locked: 0
